{
  "title": "Assets_List",
  "operationId": "Assets_List",
  "parameters": {
    "api-version": "2023-03-01-preview",
    "filter": "tclqbsolw",
    "orderby": "jopydbzxsbiujrfwrauflirly",
    "skip": 2,
    "maxpagesize": 26,
    "mark": "dmxx"
  },
  "responses": {
    "200": {
      "body": {
        "totalElements": 4,
        "mark": "xntoisscpgylipvvcbpbtkcylcif",
        "nextLink": "dmenqtvlrzbihapgcpe",
        "value": [
          {
            "kind": "AssetResource",
            "id": "cvhynzefwp",
            "name": "feqhaxayausacyis",
            "displayName": "jk",
            "uuid": "00000000-0000-0000-0000-000000000000",
            "createdDate": "2023-08-08T15:19:26.642Z",
            "updatedDate": "2023-08-08T15:19:26.642Z",
            "state": "candidate",
            "externalId": "yynepguncrxifciynonuhzfi",
            "labels": [
              "nrdcoo"
            ],
            "wildcard": true,
            "discoGroupName": "onuflygmv",
            "auditTrail": [
              {
                "id": "wutdsovzmp",
                "name": "yxykxxishbzkelfesgcpidcmvysk",
                "displayName": "wcmls",
                "kind": "as",
                "reason": "iyavsavd"
              }
            ],
            "reason": "kufdtuvyfwbfecxtapa"
          }
        ]
      }
    }
  }
}