{
  "title": "DataConnections_List",
  "operationId": "DataConnections_List",
  "parameters": {
    "api-version": "2023-03-01-preview",
    "skip": 2,
    "maxpagesize": 26
  },
  "responses": {
    "200": {
      "body": {
        "totalElements": 14,
        "nextLink": "twnc",
        "value": [
          {
            "kind": "DataConnection",
            "id": "gaqccagrfcxi",
            "name": "zrhyyqu",
            "displayName": "gvtijgviwfcgkfloai",
            "content": "assets",
            "createdDate": "2023-08-08T15:19:28.128Z",
            "frequency": "daily",
            "frequencyOffset": 29,
            "updatedDate": "2023-08-08T15:19:28.129Z",
            "userUpdatedAt": "2023-08-08T15:19:28.129Z",
            "active": true,
            "inactiveMessage": "tf"
          }
        ]
      }
    }
  }
}
