{
  "title": "DiscoveryGroups_List",
  "operationId": "DiscoveryGroups_List",
  "parameters": {
    "api-version": "2023-03-01-preview",
    "filter": "tclqbsolw",
    "skip": 2,
    "maxpagesize": 26
  },
  "responses": {
    "200": {
      "body": {
        "totalElements": 22,
        "nextLink": "qnuz",
        "value": [
          {
            "id": "exwrgvxhdqngtatzzmobxw",
            "name": "tckhwgauawbytazupuagvdapvo",
            "displayName": "yyaqweomuvgggubmzv",
            "description": "peqmlprlsmpjhcysxflgaxofdtgxt",
            "tier": "ajscwpcmfeza",
            "frequencyMilliseconds": 14,
            "seeds": [
              {
                "kind": "as",
                "name": "clzgjmqxabsovgkrrjlk"
              }
            ],
            "names": [
              "bxjatfcragbkaumkkurvxjg"
            ],
            "excludes": [
              {
                "kind": "as",
                "name": "clzgjmqxabsovgkrrjlk"
              }
            ],
            "latestRun": {
              "submittedDate": "2023-08-08T15:19:30.342Z",
              "startedDate": "2023-08-08T15:19:30.342Z",
              "completedDate": "2023-08-08T15:19:30.342Z",
              "tier": "r",
              "state": "pending",
              "totalAssetsFoundCount": 4,
              "seeds": [
                {
                  "kind": "as",
                  "name": "clzgjmqxabsovgkrrjlk"
                }
              ],
              "excludes": [
                {
                  "kind": "as",
                  "name": "clzgjmqxabsovgkrrjlk"
                }
              ],
              "names": [
                "pfeznxssujnlzhkpxypaydpyspdmxt"
              ]
            },
            "createdDate": "2023-08-08T15:19:30.342Z",
            "templateId": "dakleptkdiavvzuqo"
          }
        ]
      }
    }
  }
}