{
  "title": "DiscoveryTemplates_List",
  "operationId": "DiscoveryTemplates_List",
  "parameters": {
    "api-version": "2023-03-01-preview",
    "filter": "tclqbsolw",
    "skip": 2,
    "maxpagesize": 26
  },
  "responses": {
    "200": {
      "body": {
        "totalElements": 13,
        "nextLink": "alzxaiibsofy",
        "value": [
          {
            "id": "iywudxgulixlohqcvznvipgeejooly",
            "name": "vdsyulzvnoqaxwzs",
            "displayName": "eflnonexkwwqksnjhgveqxnn",
            "industry": "ujzodvbticakwbknrnswdgn",
            "region": "nqfavnbpvadvoeem",
            "countryCode": "uekntuedjplfeaqkychwadkvswty",
            "stateCode": "sffguaqhrmmbcq",
            "city": "sezixt",
            "seeds": [
              {
                "kind": "as",
                "name": "clzgjmqxabsovgkrrjlk"
              }
            ],
            "names": [
              "qczpbpxv"
            ]
          }
        ]
      }
    }
  }
}
