{
  "parameters": {
    "api-version": "2023-03-01-preview",
    "subscriptionId": "00000000-0000-0000-0000-000000000000",
    "resourceGroupName": "dummyrg",
    "workspaceName": "ThisisaWorkspace",
    "assetId": "aG9zdCQkY29udG9zby5jb20"
  },
  "responses": {
    "200": {
      "body": {
        "totalElements": 2,
        "mark": null,
        "nextLink": "https://<api-endpoint>/subscriptions/00000000-0000-0000-0000-000000000000/resourceGroups/dummyrg/workspaces/ThisisaWorkspace/assets/host$$contoso.net/observations?skip=1&maxpagesize=1&api-version=2023-03-01-preview",
        "value": [
          {
            "name": "ThisisObservationName",
            "severity": "high",
            "type": "cve"
          }
        ]
      }
    }
  }
}
