{
  "title": "DiscoveryGroups_ListRuns",
  "operationId": "DiscoveryGroups_ListRuns",
  "parameters": {
    "api-version": "2023-03-01-preview",
    "filter": "mloavytplpmxwuzkbsmkvtpli",
    "skip": 28,
    "maxpagesize": 25,
    "groupName": "q"
  },
  "responses": {
    "200": {
      "body": {
        "totalElements": 26,
        "nextLink": "gybvbgjbcx",
        "value": [
          {
            "submittedDate": "2023-08-04T20:46:40.328Z",
            "startedDate": "2023-08-04T20:46:40.328Z",
            "completedDate": "2023-08-04T20:46:40.328Z",
            "tier": "vakfeqcvewealmbldbybabicxgmh",
            "state": "pending",
            "totalAssetsFoundCount": 28,
            "seeds": [
              {
                "kind": "as",
                "name": "qxcbw"
              }
            ],
            "excludes": [
              {
                "kind": "as",
                "name": "qxcbw"
              }
            ],
            "names": [
              "tfwzitwxpjzhprdpmdebzmsaofj"
            ]
          }
        ]
      }
    }
  }
}
