{
  "parameters": {
    "api-version": "2022-11-01",
    "location": "eastus",
    "reservedResourceType": "VirtualMachines",
    "subscriptionId": "23bc208b-083f-4901-ae85-4f98c0c3b4b6"
  },
  "responses": {
    "200": {
      "body": {
        "nextLink": "https://management.azure.com/providers/Microsoft.Capacity/reservationOrders?api-version=2022-11-01&$filter=(term eq 'P1Y')&$take=50&$skip=50",
        "totalItems": 1000,
        "value": [
          {
            "name": "Standard_DS5_v2",
            "billingPlans": {
              "P1Y": [
                "Upfront",
                "Monthly"
              ],
              "P3Y": [
                "Upfront",
                "Monthly"
              ]
            },
            "locations": [
              "eastus"
            ],
            "resourceType": "VirtualMachines",
            "restrictions": [],
            "skuProperties": [
              {
                "name": "Cores",
                "value": "16"
              },
              {
                "name": "ProductTitle",
                "value": "DSv2 Series, DS5"
              },
              {
                "name": "ProductShortName",
                "value": "DSv2 Series"
              },
              {
                "name": "SKUName",
                "value": "DS5 v2"
              },
              {
                "name": "MeterId",
                "value": "12bc208b-083f-4901-ae85-4f98c0c3b4b8"
              }
            ],
            "terms": [
              "P1Y",
              "P3Y"
            ]
          },
          {
            "name": "Standard_D1",
            "billingPlans": {
              "P1Y": [
                "Upfront",
                "Monthly"
              ],
              "P3Y": [
                "Upfront",
                "Monthly"
              ]
            },
            "locations": [
              "eastus"
            ],
            "resourceType": "VirtualMachines",
            "restrictions": [
              {
                "type": "Term",
                "reasonCode": "NotAvailableForSubscription",
                "values": [
                  "P1Y"
                ]
              },
              {
                "type": "Term",
                "reasonCode": "NotAvailableForSubscription",
                "values": [
                  "P3Y"
                ]
              }
            ],
            "skuProperties": [
              {
                "name": "Cores",
                "value": "1"
              },
              {
                "name": "ProductTitle",
                "value": "D Series, D1"
              },
              {
                "name": "ProductShortName",
                "value": "D Series"
              },
              {
                "name": "SKUName",
                "value": "D1"
              },
              {
                "name": "MeterId",
                "value": "12bc208b-083f-4901-ae85-4f98c0c3b4b8"
              }
            ],
            "terms": [
              "P1Y",
              "P3Y"
            ]
          },
          {
            "name": "Standard_F2",
            "billingPlans": {
              "P1Y": [
                "Upfront",
                "Monthly"
              ],
              "P3Y": [
                "Upfront",
                "Monthly"
              ]
            },
            "locations": [
              "eastus"
            ],
            "resourceType": "VirtualMachines",
            "restrictions": [
              {
                "type": "Location",
                "reasonCode": "NotAvailableForSubscription",
                "values": [
                  "eastus"
                ]
              }
            ],
            "skuProperties": [
              {
                "name": "Cores",
                "value": "2"
              },
              {
                "name": "ProductTitle",
                "value": "F Series, F2"
              },
              {
                "name": "ProductShortName",
                "value": "F Series"
              },
              {
                "name": "SKUName",
                "value": "F2"
              },
              {
                "name": "MeterId",
                "value": "12bc208b-083f-4901-ae85-4f98c0c3b4b8"
              }
            ],
            "terms": [
              "P1Y",
              "P3Y"
            ]
          }
        ]
      }
    }
  },
  "operationId": "GetCatalog",
  "title": "Catalog"
}