{
  "title": "Show all blocklist hit API count at different timestamps.",
  "operationId": "Blocklist_ListHitCalls",
  "parameters": {
    "skip": 27,
    "top": 16,
    "maxpagesize": 13,
    "start": "2023-04-20T09:12:27.510Z",
    "end": "2023-04-20T09:12:27.510Z"
  },
  "responses": {
    "200": {
      "body": {
        "value": [
          {
            "dateTime": "2023-04-20T09:12:27.510Z",
            "count": 15
          }
        ],
        "nextLink": "uovcuyak"
      }
    }
  }
}