{
  "title": "List top terms hit in blocklist at different timestamps.",
  "operationId": "Blocklist_ListTopTerms",
  "parameters": {
    "skip": 27,
    "top": 17,
    "maxpagesize": 27,
    "start": "2023-04-20T10:02:57.099Z",
    "end": "2023-04-20T10:02:57.099Z",
    "contentSafetyVersion": "2023-04-30-preview"
  },
  "responses": {
    "200": {
      "body": {
        "value": [
          {
            "term": "pnpngnwunhbgw",
            "count": 27
          }
        ],
        "nextLink": "kwxo"
      }
    }
  }
}