{
  "title": "Metrics_ListTotalCallsByCategoryAndSeverity",
  "operationId": "Metrics_ListTotalCallsByCategoryAndSeverity",
  "parameters": {
    "api-version": "2023-04-30-preview",
    "category": "Hate",
    "severity": "0",
    "top": 2,
    "skip": 18,
    "maxpagesize": 9,
    "start": "2023-04-20T08:11:09.469Z",
    "end": "2023-04-20T08:11:09.469Z",
    "granularity": "Hourly",
    "modality": "Text"
  },
  "responses": {
    "200": {
      "body": {
        "value": [
          {
            "dateTime": "2023-04-20T08:11:09.879Z",
            "count": 3
          }
        ],
        "nextLink": "https://microsoft.com/a"
      }
    }
  }
}