{
  "title": "Metrics_ListTotalCalls",
  "operationId": "Metrics_ListTotalCalls",
  "parameters": {
    "api-version": "2023-04-30-preview",
    "top": 2,
    "skip": 18,
    "maxpagesize": 9,
    "start": "2023-04-20T08:11:09.469Z",
    "end": "2023-04-20T08:11:09.469Z",
    "granularity": "Hourly",
    "contentSafetyOperation": "AnalyzeText",
    "contentSafetyVersion": "2023-04-30-preview"
  },
  "responses": {
    "200": {
      "body": {
        "value": [
          {
            "dateTime": "2023-04-20T08:11:10.186Z",
            "count": 24
          }
        ],
        "nextLink": "https://microsoft.com/a"
      }
    }
  }
}