{
  "title": "List API request counts at different timestamps given a time range.",
  "operationId": "Metrics_ListRequestCounts",
  "parameters": {
    "api-version": "2023-04-30-preview",
    "skip": 1,
    "top": 3,
    "maxpagesize": 20,
    "start": "2023-04-21T05:40:04.048Z",
    "end": "2023-04-21T05:40:04.048Z",
    "granularity": "Hourly",
    "contentSafetyOperation": "AnalyzeText",
    "contentSafetyVersion": "2023-04-30-preview"
  },
  "responses": {
    "200": {
      "body": {
        "value": [
          {
            "dateTime": "2023-04-21T05:40:04.521Z",
            "count": 13
          }
        ],
        "nextLink": "givfgtqnlhirzhwm"
      }
    }
  }
}