{
  "title": "Show blocklist hit request count at different timestamps.",
  "operationId": "Metrics_ListBlocklistHitCalls",
  "parameters": {
    "api-version": "2023-04-30-preview",
    "skip": 1,
    "top": 3,
    "maxpagesize": 20,
    "start": "2023-04-21T05:40:04.048Z",
    "end": "2023-04-21T05:40:04.048Z",
    "contentSafetyVersion": "2023-04-30-preview"
  },
  "responses": {
    "200": {
      "body": {
        "value": [
          {
            "dateTime": "2023-04-21T05:40:04.048Z",
            "count": 3
          }
        ],
        "nextLink": "exowgerwmclqvwnrjx"
      }
    }
  }
}