{
  "title": "Metrics_ListSeverityDistributionByCategoryAndSeverity",
  "operationId": "Metrics_ListSeverityDistributionByCategoryAndSeverity",
  "parameters": {
    "api-version": "2023-04-30-preview",
    "category": "Hate",
    "top": 2,
    "skip": 18,
    "maxpagesize": 9,
    "start": "2023-04-20T08:11:09.469Z",
    "end": "2023-04-20T08:11:09.469Z",
    "granularity": "Hourly",
    "modality": "Text"
  },
  "responses": {
    "200": {
      "body": {
        "value": [
          {
            "severity": "0",
            "count": 8
          }
        ],
        "nextLink": "https://microsoft.com/adyxfic"
      }
    }
  }
}