{
  "title": "Get all configurations",
  "operationId": "GetConfigurations",
  "parameters": {
    "api-version": "2025-11-11-preview",
    "category": "jxbmoqhodibdcyhbeoylh",
    "key": "dmzi"
  },
  "responses": {
    "200": {
      "body": {
        "configurations": [
          {
            "id": "iwjhggkqpicpgfofwqrbclx",
            "key": "qws",
            "value": "e",
            "description": "c",
            "category": "sdahcds",
            "isActive": true,
            "createdBy": "ehrxvuaevnokxvhjgnjc",
            "modifiedBy": "hrfoeafaetbutsvsmdjpdiuyjfe",
            "createdOn": "2025-11-17T20:39:48.888Z",
            "modifiedOn": "2025-11-17T20:39:48.888Z"
          }
        ],
        "totalCount": 26,
        "pagination": {
          "totalCount": 22,
          "limit": 13,
          "offset": 30,
          "hasNext": true,
          "hasPrevious": true
        }
      }
    }
  }
}
