{
  "title": "Blocklist_ListHitCalls_MaximumSet_Gen - generated by [MaximumSet] rule - generated by [MaximumSet] rule - generated by [MaximumSet] rule",
  "operationId": "Blocklist_ListHitCalls",
  "parameters": {
    "api-version": "2023-04-30-preview",
    "top": 21,
    "skip": 11,
    "maxpagesize": 7,
    "start": "2023-04-20T02:18:11.357Z",
    "end": "2023-04-20T02:18:11.357Z",
    "granularity": "Hourly"
  },
  "responses": {
    "200": {
      "body": {
        "value": [
          {
            "dateTime": "2023-04-20T02:28:42.346Z",
            "count": 2
          }
        ],
        "nextLink": "https://microsoft.com/a"
      }
    }
  }
}