{
  "title": "Metrics_ListTotalCalls - generated by [MaximumSet] rule - generated by [MaximumSet] rule - generated by [MaximumSet] rule - generated by [MaximumSet] rule",
  "operationId": "Metrics_ListTotalCalls",
  "parameters": {
    "api-version": "2023-04-30-preview",
    "top": 21,
    "skip": 11,
    "maxpagesize": 7,
    "start": "2023-04-20T02:18:11.357Z",
    "end": "2023-04-20T02:18:11.357Z",
    "granularity": "Hourly",
    "contentSafetyOperation": "AnalyzeText",
    "contentSafetyVersion": "2023-04-30-preview"
  },
  "responses": {
    "200": {
      "body": {
        "value": [
          {
            "dateTime": "2023-04-20T02:18:11.968Z",
            "count": 28
          }
        ],
        "nextLink": "https://microsoft.com/aglet"
      }
    }
  }
}